…
**Back to our case where we do not need to remove the missing values in the outcomes**. We now have to specify our imputation model and this should be as similar to the analysis model that you had in mind. If you want to add quadratic terms in your analysis model then you also have to include them in your imputation model. Here, I want to fit the following model:

```r
lm(outcome ~ predictor1 * predictor2, data = mydata)
```

**Therefore**,our imputation should have **at least** the main effects of predictor1 and predictor2, and their interaction effect, on the same outcome. **Important to note, the imputation model is allowed to have extra variables and this is the moment where I finally spoil the purpose of my auxiliary variable**. **Auxiliary variables are usually not of interest** for your analysis per se **but these variables may relate to missingness and missing variables.** Therefore they may aid to approximate more the assumption of MAR. You could especially **consider to add auxiliary variables when** your *pattern of missingness* resembles more the **missing not at random state**. Of course, later on, you could always run mice with and without auxiliary variables to check whether results remain similar. **In our example I will add the auxiliary variable to my imputation model**. 

```r
my_mice_model = with(mice_data, 
     lm( outcome ~ predictor1 * predictor2 + auxiliary )) # we have to use "with" since mice_data is a mids object

summary(my_mice_model)
#> # A tibble: 125 × 6
#>    term          estimate std.error statistic  p.value  nobs
#>    <chr>            <dbl>     <dbl>     <dbl>    <dbl> <int>
#>  1 (Intercept)   -0.110      0.0434    -2.53  1.17e- 2   500
#>  2 predictor1     0.404      0.0412     9.82  6.54e-21   500
#>  3 predictor2     0.296      0.0416     7.12  3.89e-12   500
#>  4 auxiliary      0.0397     0.0420     0.945 3.45e- 1   500
#>  5 predictor1:p…  0.0194     0.0422     0.460 6.46e- 1   500
#>  6 (Intercept)   -0.0353     0.0428    -0.824 4.10e- 1   500
#>  7 predictor1     0.446      0.0395    11.3   1.86e-26   500
#>  8 predictor2     0.295      0.0398     7.41  5.69e-13   500
#>  9 auxiliary     -0.0905     0.0413    -2.19  2.90e- 2   500
#> 10 predictor1:p… -0.00667    0.0363    -0.184 8.54e- 1   500
#> # ℹ 115 more rows
```
…
